Baldur Yeast Tutorial
…
# Single trend
gr_results <- gr_model %>%
  # Add hyper-priors for sigma
  estimate_gamma_hyperparameters(yeast_norm) %>%
  infer_data_and_decision_model(
    id_col,
    yeast_design,
    yeast_contrast,
    unc_gr,
    clusters = 10 # I highly recommend using parallel workers/clusters
  )               # this will greatly reduce the speed of running baldur
# The top hits then looks as follows:
gr_results %>%
  dplyr::arrange(err)
#> # A tibble: 1,802 × 22
#>    identifier                                  comparison          err    lfc lfc_025 lfc_50 lfc_975 lfc_eff lfc_rhat  sigma sigma_025 sigma_50 sigma_975 sigma_eff sigma_rhat    lp lp_025 lp_50 lp_975 lp_eff lp_rhat warnings 
#>    <chr>                                       <chr>             <dbl>  <dbl>   <dbl>  <dbl>   <dbl>   <dbl>    <dbl>  <dbl>     <dbl>    <dbl>     <dbl>     <dbl>      <dbl> <dbl>  <dbl> <dbl>  <dbl>  <dbl>   <dbl> <list>   
#>  1 Cre09.g406050.t1.2|PACid:30781126|--219     ng100 vs ng50 4.55e-210  6.18    5.78   6.18    6.59    2818.    1.00  0.124     0.0672   0.114     0.248      1278.       1.00  14.5   8.18  14.9   18.4   999.    1.00 <chr [0]>
#>  2 sp|P37302|APE3_YEAST--187                   ng100 vs ng50 2.98e-173  1.51    1.40   1.51    1.62    3015.    0.999 0.0461    0.0248   0.0422    0.0915     1265.       1.00  29.7  23.1   30.1   33.7   914.    1.00 <chr [0]>
#>  3 Cre12.g554100.t1.1|PACid:30791753|--87      ng100 vs ng50 2.11e-168  1.61    1.49   1.61    1.72    3085.    1.00  0.0493    0.0271   0.0449    0.0972     1363.       1.00  28.8  22.0   29.3   32.8   913.    1.00 <chr [0]>
#>  4 sp|P38788|SSZ1_YEAST--86                    ng100 vs ng50 1.99e-138  1.07    0.986  1.07    1.16    2582.    1.00  0.0363    0.0190   0.0331    0.0732     1191.       1.00  32.3  25.3   32.8   36.4   918.    1.00 <chr [0]>
#>  5 Cre14.g616700.t1.1|PACid:30776509|--709     ng100 vs ng50 1.74e-127 -4.54   -4.90  -4.54   -4.16    2902.    1.00  0.147     0.0782   0.134     0.295       982.       1.00  15.4   8.45  15.9   19.5   764.    1.00 <chr [0]>
#>  6 Cre10.g420750.t1.2|PACid:30790763|--50-53   ng100 vs ng50 2.27e-122  4.16    3.80   4.16    4.51    3748.    0.999 0.152     0.0829   0.140     0.301      1462.       1.00  17.4  10.6   17.8   21.4  1133.    1.00 <chr [0]>
#>  7 sp|P09624|DLDH_YEAST--65-70                 ng100 vs ng50 2.60e-102  1.48    1.34   1.48    1.62    2764.    1.00  0.0578    0.0319   0.0532    0.114      1278.       1.00  26.2  19.4   26.7   30.1   968.    1.00 <chr [0]>
#>  8 Cre12.g533100.t1.1|PACid:30792932|--188-196 ng100 vs ng50 1.18e-100  1.41    1.28   1.41    1.54    2730.    1.00  0.0579    0.0314   0.0529    0.114      1116.       1.00  26.9  20.2   27.4   30.8   806.    1.00 <chr [0]>
#>  9 sp|P19882|HSP60_YEAST--132                  ng100 vs ng50 1.30e- 89  0.885   0.798  0.884   0.974   3370.    1.00  0.0410    0.0229   0.0375    0.0792     1437.       1.00  33.2  26.9   33.7   37.0   925.    1.01 <chr [0]>
#> 10 Cre06.g306550.t1.1|PACid:30779423|--99      ng100 vs ng50 1.80e- 88  4.20    3.80   4.21    4.62    2685.    1.00  0.151     0.0805   0.139     0.298      1210.       1.00  13.8   7.29  14.2   17.9   920.    1.01 <chr [0]>
#> # ℹ 1,792 more rows
…
