Baldur Yeast Tutorial
…
# Single trend
gr_results <- gr_model %>%
  # Add hyper-priors for sigma
  estimate_gamma_hyperparameters(yeast_norm) %>%
  infer_data_and_decision_model(
    id_col,
    yeast_design,
    yeast_contrast,
    unc_gr,
    clusters = workers # I highly recommend using parallel workers/clusters
  )                    # this will greatly reduce the time of running baldur
# The top hits then looks as follows:
gr_results %>%
  dplyr::arrange(err)
#> # A tibble: 1,802 × 22
#>    identifier comparison       err    lfc lfc_025 lfc_50 lfc_975 lfc_eff lfc_rhat  sigma sigma_025 sigma_50 sigma_975 sigma_eff sigma_rhat    lp
#>    <chr>      <chr>          <dbl>  <dbl>   <dbl>  <dbl>   <dbl>   <dbl>    <dbl>  <dbl>     <dbl>    <dbl>     <dbl>     <dbl>      <dbl> <dbl>
#>  1 Cre09.g40… ng100 vs … 3.78e-213  6.18    5.79   6.18    6.56    1780.     1.00 0.123     0.0664   0.112     0.244       986.       1.00  14.5
#>  2 Cre12.g55… ng100 vs … 1.05e-178  1.61    1.50   1.61    1.72    3090.     1.00 0.0492    0.0265   0.0446    0.0979     1115.       1.00  28.9
#>  3 sp|P37302… ng100 vs … 4.15e-156  1.51    1.40   1.51    1.63    3107.     1.00 0.0464    0.0249   0.0421    0.0958     1158.       1.00  29.7
#>  4 sp|P38788… ng100 vs … 3.49e-151  1.07    0.994  1.07    1.16    3109.     1.00 0.0359    0.0190   0.0328    0.0715     1345.       1.00  32.4
#>  5 Cre14.g61… ng100 vs … 5.51e-143 -4.54   -4.89  -4.54   -4.17    2439.     1.00 0.142     0.0774   0.130     0.276      1361.       1.00  15.6
#>  6 Cre10.g42… ng100 vs … 9.10e-134  4.16    3.82   4.16    4.51    2959.     1.00 0.147     0.0828   0.135     0.275      1468.       1.00  17.7
#>  7 Cre12.g53… ng100 vs … 1.52e- 90  1.41    1.28   1.41    1.55    2580.     1.00 0.0587    0.0313   0.0533    0.117      1029.       1.00  26.8
#>  8 sp|P07259… ng100 vs … 4.38e- 87  1.14    1.02   1.14    1.26    3264.     1.00 0.0518    0.0281   0.0475    0.102      1299.       1.00  27.7
#>  9 Cre06.g30… ng100 vs … 5.85e- 86  4.20    3.80   4.21    4.62    2471.     1.00 0.150     0.0818   0.136     0.311       964.       1.00  13.9
#> 10 sp|P19882… ng100 vs … 2.18e- 85  0.883   0.794  0.882   0.976   2997.     1.00 0.0412    0.0225   0.0377    0.0794     1530.       1.00  33.1
#> # ℹ 1,792 more rows
#> # ℹ 6 more variables: lp_025 <dbl>, lp_50 <dbl>, lp_975 <dbl>, lp_eff <dbl>, lp_rhat <dbl>, warnings <list>
…
